Lab 2 Avocados
…
clean_avocado <- avocado %>%
  mutate(region = factor(region)) %>%
  filter(region %in% c("Plains" , "Midsouth" , "West" , "SouthCentral" , "Southeast" , "Northeast" , "GreatLakes" , "SouthWest" , "WestTexNewMexico", "NorthernNewEngland")) 
clean_avocado

## # A tibble: 1,064 x 14
##       X1 Date       AveragePrice `Total Volume` `4046` `4225` `4770`
##    <dbl> <date>            <dbl>          <dbl>  <dbl>  <dbl>  <dbl>
##  1    43 2015-03-01         1.09       1619341. 8.54e5 4.61e5 1.14e4
##  2    19 2015-08-16         1.88         32159. 5.37e3 1.55e4 3.56e1
##  3    32 2016-05-15         1.65         47778. 5.53e3 2.36e4 2.75e3
##  4     0 2015-12-27         1.05       2065131. 4.35e5 1.02e6 1.04e5
##  5     0 2015-12-27         1.46        142710. 2.99e4 4.84e4 3.86e1
##  6    22 2016-07-24         1.75        103129. 3.83e3 5.47e4 5.02e3
##  7    26 2016-06-26         1.03       2101836. 1.04e6 4.91e5 9.37e3
##  8    47 2015-02-01         1.67         30193. 3.90e3 1.45e4 3.22e1
##  9    48 2017-01-29         1.08        121204. 3.52e4 5.41e3 0.    
## 10    13 2016-09-25         1.58        315399. 2.32e4 2.36e5 3.71e3
## #  with 1,054 more rows, and 7 more variables: `Total Bags` <dbl>, `Small
## #   Bags` <dbl>, `Large Bags` <dbl>, `XLarge Bags` <dbl>, type <chr>,
## #   year <dbl>, region <fct>

Which major region sold the most organic small Hass avocados in 2017? From this data, we can see that the Northeast region sold the most organic Hass avocados.

colnames(clean_avocado)[5] <- "small_avocado"
clean_avocado %>%
  select(region, type, year, small_avocado)%>%
  filter(year == 2017, type == "organic")%>% 
  arrange(desc(small_avocado))

## # A tibble: 166 x 4
##    region       type     year small_avocado
##    <fct>        <chr>   <dbl>         <dbl>
##  1 Northeast    organic  2017       127052.
##  2 West         organic  2017        72450.
##  3 West         organic  2017        52928.
##  4 West         organic  2017        46575.
##  5 Northeast    organic  2017        45273.
##  6 West         organic  2017        43817.
##  7 West         organic  2017        43228.
##  8 West         organic  2017        42642.
##  9 SouthCentral organic  2017        41198.
## 10 West         organic  2017        38226.
## #  with 156 more rows

Use separate() to split the Date variable into year, month, and day. In which month is the highest volume of avocado sales? From this data, we can see that February had the highest volume of avocado sales.

colnames(clean_avocado)[6] <- "total_vol"
clean_avocado %>%
  separate(col = Date, into = c("Year", "Month", "Day"), sep = "-") %>%
  arrange(desc(total_vol))

## # A tibble: 1,064 x 16
##       X1 Year  Month Day   AveragePrice `Total Volume` small_avocado total_vol
##    <dbl> <chr> <chr> <chr>        <dbl>          <dbl>         <dbl>     <dbl>
##  1     7 2018  02    04            1.22       7508650.       480604.  5402444.
##  2    10 2015  10    18            0.99       4866607.        93569.  4025382.
##  3     6 2018  02    11            1.24       5694136.       565852.  3782154.
##  4     8 2018  01    28            1.23       5680958.       418911.  3730288.
##  5    32 2016  05    15            1.13       4999101.       100735.  3556590.
##  6    30 2016  05    29            1.14       5141315.       141465.  3554079.
##  7     3 2018  03    04            1.22       5318555.       364721.  3542626.
##  8    47 2016  01    31            1.06       4650798.       102907.  3443651.
##  9    49 2017  01    22            1.39       5007356.       206779.  3425748.
## 10    29 2015  06    07            1.27       4721927.       109588.  3416600.
## #  with 1,054 more rows, and 8 more variables: `4770` <dbl>, `Total
## #   Bags` <dbl>, `Small Bags` <dbl>, `Large Bags` <dbl>, `XLarge Bags` <dbl>,
## #   type <chr>, year <dbl>, region <fct>
…
