Stat Final Part Two
…
3/17/2020

Warm-ups (10 points each)

Which is the only movie to have won all 5 of the awards in this dataset?

The only movie to have won all 5 of the awards in this dataset is Million Dollar Baby.

oscars %>%
  select(movie, award) %>%
  count(movie) %>%
  arrange(desc(n))

## # A tibble: 336 x 2
##    movie                        n
##    <chr>                    <int>
##  1 Million Dollar Baby          5
##  2 Network                      4
##  3 West Side Story              4
##  4 A Streetcar Named Desire     3
##  5 Cabaret                      3
##  6 From Here to Eternity        3
##  7 Going My Way                 3
##  8 Gone with the Wind           3
##  9 It Happened One Night        3
## 10 Kramer vs. Kramer            3
## #  with 326 more rows

Of all actresses who have won the Best Actress award, what are the three most common first names?

The three most common names are Hilary, Katharine, and Elizabeth (tied with Helen and Jane).

oscars %>%
  select(award, person) %>%
  filter(award%in% "Best Actress") %>%
  separate(person, c("First", " Last")) %>%
  group_by(First) %>%
  count(First) %>%
  arrange(desc(n))

## # A tibble: 63 x 2
## # Groups:   First [63]
##    First         n
##    <chr>     <int>
##  1 Hilary        4
##  2 Katharine     4
##  3 Elizabeth     3
##  4 Helen         3
##  5 Jane          3
##  6 Bette         2
##  7 Faye          2
##  8 Ginger        2
##  9 Glenda        2
## 10 Gwyneth       2
## #  with 53 more rows

What US State, or non-US country, has produced the most Oscar winners (for the awards in this dataset)?

The top country is England and the top State is California.

oscars %>%
  select(birthplace) %>%
  mutate(location = word(birthplace, -1)) %>%
  group_by(location) %>%
  count(location) %>%
  arrange(desc(n))

## # A tibble: 67 x 2
## # Groups:   location [67]
##    location     n
##    <chr>    <int>
##  1 England     58
##  2 Ca          45
##  3 City        36
##  4 Ny          29
##  5 Il          21
##  6 Ma          14
##  7 Mo          14
##  8 Nj          13
##  9 Pa          11
## 10 Ne          10
## #  with 57 more rows
…
