Midterm: Part Three
…
#168/2=84 so half way is

new_nba %>%
  mutate(half_way = new_date + 84)

## # A tibble: 48 x 20
##      Age Date  `Draft Year` Height Player Position Season `Season short`
##    <dbl> <chr>        <dbl>  <dbl> <chr>  <chr>    <chr>           <dbl>
##  1    21 Apr          2016   81.9 Ben S PF       2017-           2018
##  2    23 Apr          2014   81.9 Nikol C        2017-           2018
##  3    25 Apr          2013   76.0 Victo G        2017-           2018
##  4    27 Apr          2012   75.2 Damia G        2017-           2018
##  5    33 Mar          2003   79.9 LeBro F        2017-           2018
##  6    32 Mar          2006   83.1 LaMar FC       2017-           2018
##  7    33 Mar          2003   79.9 LeBro F        2017-           2018
##  8    29 Mar          2008   75.2 Russe G        2017-           2018
##  9    28 Mar          2009   79.1 DeMar GF       2017-           2018
## 10    27 Mar          2012   75.2 Damia G        2017-           2018
## #  with 38 more rows, and 12 more variables: `Seasons in league` <dbl>,
## #   Team <chr>, Real_value <dbl>, Conference <chr>, Weight <dbl>,
## #   new_date <date>, year <dbl>, month <dbl>, day <dbl>, date_time <dttm>,
## #   halfway_point <drtn>, half_way <date>
…
